…
library(APCalign)
```

To demonstrate how to use 'APCalign', we will use an example dataset `gbif_lite` which is documented in `?gbif_lite`


```r
dim(gbif_lite)
#> [1] 129   7

gbif_lite |> print(n = 6)
#> # A tibble: 129 × 7
#>   species              infraspecificepithet taxonrank decimalLongitude decimalLatitude scientificname
#>   <chr>                <chr>                <chr>                <dbl>           <dbl> <chr>         
#> 1 Tetratheca ciliata   <NA>                 SPECIES               145.           -37.4 Tetratheca ci…
#> 2 Peganum harmala      <NA>                 SPECIES               139.           -33.3 Peganum harma…
#> 3 Calotis multicaulis  <NA>                 SPECIES               115.           -24.3 Calotis multi…
#> 4 Leptospermum triner… <NA>                 SPECIES               151.           -34.0 Leptospermum …
#> 5 Lepidosperma latera… <NA>                 SPECIES               142.           -37.3 Lepidosperma …
#> 6 Enneapogon polyphyl… <NA>                 SPECIES               129.           -17.8 Enneapogon po…
#> # ℹ 123 more rows
#> # ℹ 1 more variable: verbatimscientificname <chr>
```
…
If you would like to learn more about each of these step, take a look at the section [Closer look at name standardisation with 'APCalign'](#closer-look)


```r
library(dplyr)
library(tidyr)

update_gbif_names <- gbif_lite |> 
  pull(species) |> 
  create_taxonomic_update_lookup(resources = resources)
#> Checking alignments of 121 taxa
#>   -> 0 names already matched; 0 names checked but without a match; 121 taxa yet to be checked

update_gbif_names |> print(n = 6)
#> # A tibble: 146 × 5
#>   original_name           aligned_name            apc_name      aligned_reason taxonomic_status_of_…¹
#>   <chr>                   <chr>                   <chr>         <chr>          <chr>                 
#> 1 Tetratheca ciliata      Tetratheca ciliata      Tetratheca c… match_06. Aut… accepted              
#> 2 Peganum harmala         Peganum harmala         Peganum harm… match_06. Aut… accepted              
#> 3 Calotis multicaulis     Calotis multicaulis     Calotis mult… match_06. Aut… accepted              
#> 4 Calotis multicaulis     Calotis multicaulis     Calotis plum… match_06. Aut… pro parte misapplied  
#> 5 Leptospermum trinervium Leptospermum trinervium Leptospermum… match_06. Aut… accepted              
#> 6 Lepidosperma laterale   Lepidosperma laterale   Lepidosperma… match_06. Aut… accepted              
#> # ℹ 140 more rows
#> # ℹ abbreviated name: ¹​taxonomic_status_of_aligned_name
```
The `original_name` is the taxon name used in your original data.
The `aligned_name` is the taxon name we used to link with the APC to identify any synonyms. 
The `apc_name` is the currently, accepted taxon name used by the Australian Plant Census.

We recommend joining the output of `create_taxonomic_update_lookup()` back to your original data so all names


```r
gbif_lite |> 
left_join(update_gbif_names,  # Left joining updated taxon names back to original data 
          by = join_by(species == original_name)) |> 
  select(species, ends_with("name"), # Rearranging naming columns
         aligned_reason, infraspecificepithet:decimalLatitude) |> 
  print(n = 6)
#> # A tibble: 154 × 11
#>   species          scientificname verbatimscientificname aligned_name apc_name taxonomic_status_of_…¹
#>   <chr>            <chr>          <chr>                  <chr>        <chr>    <chr>                 
#> 1 Tetratheca cili… Tetratheca ci… Tetratheca ciliata     Tetratheca … Tetrath… accepted              
#> 2 Peganum harmala  Peganum harma… Peganum harmala        Peganum har… Peganum… accepted              
#> 3 Calotis multica… Calotis multi… Calotis multicaulis    Calotis mul… Calotis… accepted              
#> 4 Calotis multica… Calotis multi… Calotis multicaulis    Calotis mul… Calotis… pro parte misapplied  
#> 5 Leptospermum tr… Leptospermum … Leptospermum trinervi… Leptospermu… Leptosp… accepted              
#> 6 Lepidosperma la… Lepidosperma … Lepidosperma laterale  Lepidosperm… Lepidos… accepted              
#> # ℹ 148 more rows
#> # ℹ abbreviated name: ¹​taxonomic_status_of_aligned_name
#> # ℹ 5 more variables: aligned_reason <chr>, infraspecificepithet <chr>, taxonrank <chr>,
#> #   decimalLongitude <dbl>, decimalLatitude <dbl>
```


## Plant established status across states/territories

'APCalign' can also provide the state/territory distribution for established status (native/introduced) from the APC.

We can access the established status data by state/territory using `create_species_state_origin_matrix()`


```r
# Retrieve status data by state/territory 
status_matrix <- create_species_state_origin_matrix(resources = resources)

status_matrix |> print(n = 6)
#> # A tibble: 26,243 × 19
#>   species   NT    Qld   WA    ChI   NSW   SA    Vic   Tas   ACT   NI    LHI   MI    HI    MDI   CoI  
#>   <chr>     <chr> <chr> <chr> <chr> <chr> <chr> <chr> <chr> <chr> <chr> <chr> <chr> <chr> <chr> <chr>
#> 1 Cycas an… nati… nati… not … not … not … not … not … not … not … not … not … not … not … not … not …
#> 2 Cycas ar… nati… not … not … not … not … not … not … not … not … not … not … not … not … not … not …
#> 3 Cycas ar… nati… not … not … not … not … not … not … not … not … not … not … not … not … not … not …
#> 4 Cycas ar… nati… not … not … not … not … not … not … not … not … not … not … not … not … not … not …
#> 5 Cycas ba… not … nati… not … not … not … not … not … not … not … not … not … not … not … not … not …
#> 6 Cycas ba… not … not … nati… not … not … not … not … not … not … not … not … not … not … not … not …
#> # ℹ 26,237 more rows
#> # ℹ 3 more variables: CSI <chr>, AR <chr>, CaI <chr>
```
…
```r
library(dplyr)
library(tidyr)

aligned_gbif_taxa <- gbif_lite |> 
  drop_na(species) |>  
  pull(species) |> 
  align_taxa(resources = resources)
#> Checking alignments of 121 taxa
#>   -> 0 names already matched; 0 names checked but without a match; 121 taxa yet to be checked

aligned_gbif_taxa |> print(n = 6)
#> # A tibble: 121 × 28
#>   original_name cleaned_name aligned_name source known checked stripped_name stripped_name2 trinomial
#>   <chr>         <chr>        <chr>        <chr>  <lgl> <lgl>   <chr>         <chr>          <chr>    
#> 1 Tetratheca c… Tetratheca … Tetratheca … <NA>   TRUE  TRUE    tetratheca c… tetratheca ci… <NA>     
#> 2 Peganum harm… Peganum har… Peganum har… <NA>   TRUE  TRUE    peganum harm… peganum harma… <NA>     
#> 3 Calotis mult… Calotis mul… Calotis mul… <NA>   TRUE  TRUE    calotis mult… calotis multi… <NA>     
#> 4 Leptospermum… Leptospermu… Leptospermu… <NA>   TRUE  TRUE    leptospermum… leptospermum … <NA>     
#> 5 Lepidosperma… Lepidosperm… Lepidosperm… <NA>   TRUE  TRUE    lepidosperma… lepidosperma … <NA>     
#> 6 Enneapogon p… Enneapogon … Enneapogon … <NA>   TRUE  TRUE    enneapogon p… enneapogon po… <NA>     
#> # ℹ 115 more rows
#> # ℹ 19 more variables: binomial <chr>, genus <chr>, aligned_reason <chr>, fuzzy_match_genus <chr>,
#> #   fuzzy_match_genus_known <chr>, fuzzy_match_genus_APNI <chr>, fuzzy_match_binomial <chr>,
#> #   fuzzy_match_binomial_APC_known <chr>, fuzzy_match_trinomial <chr>,
#> #   fuzzy_match_trinomial_known <chr>, fuzzy_match_cleaned_APC <chr>,
#> #   fuzzy_match_cleaned_APC_known <chr>, fuzzy_match_cleaned_APNI <chr>,
#> #   fuzzy_match_cleaned_APC_imprecise <chr>, fuzzy_match_cleaned_APC_known_imprecise <chr>, …
```
…
### Update taxonomic names to alignments

`update_taxonomy()` will update APNI taxa to specified (or current) version of APC. It will use the general synonymy published by the APC to attempt to sync the taxon names to a specific list. The function will also add other relevant taxonomy columns in the output



```r
updated_gbif_taxa <- aligned_gbif_taxa |> 
  pull(aligned_name) |> 
  update_taxonomy(resources = resources)

updated_gbif_taxa |> print(n = 6)
#> # A tibble: 148 × 14
#>   aligned_name    source taxonIDClean taxonomicStatusClean alternativeTaxonomic…¹ acceptedNameUsageID
#>   <chr>           <chr>  <chr>        <chr>                <chr>                  <chr>              
#> 1 Acacia aneura   APC    https://id.… accepted             misapplied | pro part… https://id.biodive…
#> 2 Acacia aneura   APC    https://id.… pro parte misapplied misapplied | pro part… https://id.biodive…
#> 3 Acacia aneura   APC    https://id.… pro parte misapplied misapplied | pro part… https://id.biodive…
#> 4 Acacia flavesc… APC    https://id.… accepted             <NA>                   https://id.biodive…
#> 5 Acacia gladiif… APC    https://id.… accepted             misapplied             https://id.biodive…
#> 6 Acacia melanox… APC    https://id.… accepted             misapplied             https://id.biodive…
#> # ℹ 142 more rows
#> # ℹ abbreviated name: ¹​alternativeTaxonomicStatusClean
#> # ℹ 8 more variables: canonicalName <chr>, scientificNameAuthorship <chr>, taxonRank <chr>,
#> #   taxonomicStatus <chr>, family <chr>, subclass <chr>, taxonDistribution <chr>,
#> #   ccAttributionIRI <chr>
```
