…
library(ausflora)
```

To demonstrate how to use 'ausflora', we will use an example dataset `gbif_lite` which is documented in `?gbif_lite`


```r
dim(gbif_lite)
#> [1] 129   7

gbif_lite |> print(n = 6)
#> # A tibble: 129 × 7
#>   species           infraspecificepithet taxonrank decimalLongitude decimalLatitude scientificname verbatimscientificname
#>   <chr>             <chr>                <chr>                <dbl>           <dbl> <chr>          <chr>                 
#> 1 Tetratheca cilia… <NA>                 SPECIES               145.           -37.4 Tetratheca ci… Tetratheca ciliata    
#> 2 Peganum harmala   <NA>                 SPECIES               139.           -33.3 Peganum harma… Peganum harmala       
#> 3 Calotis multicau… <NA>                 SPECIES               115.           -24.3 Calotis multi… Calotis multicaulis   
#> 4 Leptospermum tri… <NA>                 SPECIES               151.           -34.0 Leptospermum … Leptospermum trinervi…
#> 5 Lepidosperma lat… <NA>                 SPECIES               142.           -37.3 Lepidosperma … Lepidosperma laterale 
#> 6 Enneapogon polyp… <NA>                 SPECIES               129.           -17.8 Enneapogon po… Enneapogon polyphyllus
#> # ℹ 123 more rows
```
…
If you would like to learn more about each of these step, take a look at the section [Closer look at name standardisation with 'ausflora'](#closer-look)


```r
library(dplyr)
library(tidyr)

update_gbif_names <- gbif_lite |> 
  pull(species) |> 
  create_taxonomic_update_lookup(resources = resources)
#> Checking alignments of 121 taxa
#>   -> 0 names already matched; 0 names checked but without a match; 121 taxa yet to be checked

update_gbif_names |> print(n = 6)
#> # A tibble: 144 × 5
#>   original_name           aligned_name            apc_name                aligned_reason           taxonomic_status_of_…¹
#>   <chr>                   <chr>                   <chr>                   <chr>                    <chr>                 
#> 1 Tetratheca ciliata      Tetratheca ciliata      Tetratheca ciliata      match_06. Automatic ali… accepted              
#> 2 Peganum harmala         Peganum harmala         Peganum harmala         match_06. Automatic ali… accepted              
#> 3 Calotis multicaulis     Calotis multicaulis     Calotis multicaulis     match_06. Automatic ali… accepted              
#> 4 Calotis multicaulis     Calotis multicaulis     Calotis plumulifera     match_06. Automatic ali… pro parte misapplied  
#> 5 Leptospermum trinervium Leptospermum trinervium Leptospermum trinervium match_06. Automatic ali… accepted              
#> 6 Lepidosperma laterale   Lepidosperma laterale   Lepidosperma laterale   match_06. Automatic ali… accepted              
#> # ℹ 138 more rows
#> # ℹ abbreviated name: ¹​taxonomic_status_of_aligned_name
```
…
We recommend joining the output of `create_taxonomic_update_lookup()` back to your original data so all names


```r
gbif_lite |> 
left_join(update_gbif_names,  # Left joining updated taxon names back to original data 
          by = join_by(species == original_name)) |> 
  select(species, ends_with("name"), # Rearranging naming columns
         aligned_reason, infraspecificepithet:decimalLatitude) |> 
  print(n = 6)
#> Warning in left_join(gbif_lite, update_gbif_names, by = join_by(species == : Detected an unexpected many-to-many relationship between `x` and `y`.
#> ℹ Row 3 of `x` matches multiple rows in `y`.
#> ℹ Row 12 of `y` matches multiple rows in `x`.
#> ℹ If a many-to-many relationship is expected, set `relationship = "many-to-many"` to silence this warning.
#> # A tibble: 154 × 11
#>   species               scientificname verbatimscientificname aligned_name apc_name taxonomic_status_of_…¹ aligned_reason
#>   <chr>                 <chr>          <chr>                  <chr>        <chr>    <chr>                  <chr>         
#> 1 Tetratheca ciliata    Tetratheca ci… Tetratheca ciliata     Tetratheca … Tetrath… accepted               match_06. Aut…
#> 2 Peganum harmala       Peganum harma… Peganum harmala        Peganum har… Peganum… accepted               match_06. Aut…
#> 3 Calotis multicaulis   Calotis multi… Calotis multicaulis    Calotis mul… Calotis… accepted               match_06. Aut…
#> 4 Calotis multicaulis   Calotis multi… Calotis multicaulis    Calotis mul… Calotis… pro parte misapplied   match_06. Aut…
#> 5 Leptospermum trinerv… Leptospermum … Leptospermum trinervi… Leptospermu… Leptosp… accepted               match_06. Aut…
#> 6 Lepidosperma laterale Lepidosperma … Lepidosperma laterale  Lepidosperm… Lepidos… accepted               match_06. Aut…
#> # ℹ 148 more rows
#> # ℹ abbreviated name: ¹​taxonomic_status_of_aligned_name
#> # ℹ 4 more variables: infraspecificepithet <chr>, taxonrank <chr>, decimalLongitude <dbl>, decimalLatitude <dbl>
```


## Plant established status across states/territories

'ausflora' can also provide the state/territory distribution for established status (native/introduced) from the APC.

We can access the established status data by state/territory using `create_species_state_origin_matrix()`


```r
# Retrieve status data by state/territory 
status_matrix <- create_species_state_origin_matrix(resources = resources)

status_matrix |> print(n = 6)
#> # A tibble: 26,243 × 19
#>   species     NT    Qld   WA    ChI   NSW   SA    Vic   Tas   ACT   NI    LHI   MI    HI    MDI   CoI   CSI   AR    CaI  
#>   <chr>       <chr> <chr> <chr> <chr> <chr> <chr> <chr> <chr> <chr> <chr> <chr> <chr> <chr> <chr> <chr> <chr> <chr> <chr>
#> 1 Cycas angu… nati… nati… not … not … not … not … not … not … not … not … not … not … not … not … not … not … not … not …
#> 2 Cycas aren… nati… not … not … not … not … not … not … not … not … not … not … not … not … not … not … not … not … not …
#> 3 Cycas arms… nati… not … not … not … not … not … not … not … not … not … not … not … not … not … not … not … not … not …
#> 4 Cycas arnh… nati… not … not … not … not … not … not … not … not … not … not … not … not … not … not … not … not … not …
#> 5 Cycas bade… not … nati… not … not … not … not … not … not … not … not … not … not … not … not … not … not … not … not …
#> 6 Cycas basa… not … not … nati… not … not … not … not … not … not … not … not … not … not … not … not … not … not … not …
#> # ℹ 26,237 more rows
```
…
```r
library(dplyr)
library(tidyr)

aligned_gbif_taxa <- gbif_lite |> 
  drop_na(species) |>  
  pull(species) |> 
  align_taxa(resources = resources)
#> Checking alignments of 121 taxa
#>   -> 0 names already matched; 0 names checked but without a match; 121 taxa yet to be checked

aligned_gbif_taxa |> print(n = 6)
#> # A tibble: 121 × 28
#>   original_name      cleaned_name aligned_name source known checked stripped_name stripped_name2 trinomial binomial genus
#>   <chr>              <chr>        <chr>        <chr>  <lgl> <lgl>   <chr>         <chr>          <chr>     <chr>    <chr>
#> 1 Tetratheca ciliata Tetratheca … Tetratheca … <NA>   TRUE  TRUE    tetratheca c… tetratheca ci… <NA>      tetrath… Tetr…
#> 2 Peganum harmala    Peganum har… Peganum har… <NA>   TRUE  TRUE    peganum harm… peganum harma… <NA>      peganum… Pega…
#> 3 Calotis multicaul… Calotis mul… Calotis mul… <NA>   TRUE  TRUE    calotis mult… calotis multi… <NA>      calotis… Calo…
#> 4 Leptospermum trin… Leptospermu… Leptospermu… <NA>   TRUE  TRUE    leptospermum… leptospermum … <NA>      leptosp… Lept…
#> 5 Lepidosperma late… Lepidosperm… Lepidosperm… <NA>   TRUE  TRUE    lepidosperma… lepidosperma … <NA>      lepidos… Lepi…
#> 6 Enneapogon polyph… Enneapogon … Enneapogon … <NA>   TRUE  TRUE    enneapogon p… enneapogon po… <NA>      enneapo… Enne…
#> # ℹ 115 more rows
#> # ℹ 17 more variables: aligned_reason <chr>, fuzzy_match_genus <chr>, fuzzy_match_genus_known <chr>,
#> #   fuzzy_match_genus_APNI <chr>, fuzzy_match_binomial <chr>, fuzzy_match_binomial_APC_known <chr>,
#> #   fuzzy_match_trinomial <chr>, fuzzy_match_trinomial_known <chr>, fuzzy_match_cleaned_APC <chr>,
#> #   fuzzy_match_cleaned_APC_known <chr>, fuzzy_match_cleaned_APNI <chr>, fuzzy_match_cleaned_APC_imprecise <chr>,
#> #   fuzzy_match_cleaned_APC_known_imprecise <chr>, fuzzy_match_cleaned_APNI_imprecise <chr>, taxonomic_ref <chr>,
#> #   taxonomic_resolution <chr>, still_to_match <chr>
```
…
### Update taxonomic names to alignments

`update_taxonomy()` will update APNI taxa to specified (or current) version of APC. It will use the general synonymy published by the APC to attempt to sync the taxon names to a specific list. The function will also add other relevant taxonomy columns in the output



```r
updated_gbif_taxa <- aligned_gbif_taxa |> 
  pull(aligned_name) |> 
  update_taxonomy(resources = resources)

updated_gbif_taxa |> print(n = 6)
#> # A tibble: 148 × 14
#>   aligned_name        source taxonIDClean   taxonomicStatusClean alternativeTaxonomic…¹ acceptedNameUsageID canonicalName
#>   <chr>               <chr>  <chr>          <chr>                <chr>                  <chr>               <chr>        
#> 1 Acacia aneura       APC    https://id.bi… accepted             misapplied | pro part… https://id.biodive… Acacia aneura
#> 2 Acacia aneura       APC    https://id.bi… pro parte misapplied misapplied | pro part… https://id.biodive… Acacia minyu…
#> 3 Acacia aneura       APC    https://id.bi… pro parte misapplied misapplied | pro part… https://id.biodive… Acacia paran…
#> 4 Acacia flavescens   APC    https://id.bi… accepted             <NA>                   https://id.biodive… Acacia flave…
#> 5 Acacia gladiiformis APC    https://id.bi… accepted             misapplied             https://id.biodive… Acacia gladi…
#> 6 Acacia melanoxylon  APC    https://id.bi… accepted             misapplied             https://id.biodive… Acacia melan…
#> # ℹ 142 more rows
#> # ℹ abbreviated name: ¹​alternativeTaxonomicStatusClean
#> # ℹ 7 more variables: scientificNameAuthorship <chr>, taxonRank <chr>, taxonomicStatus <chr>, family <chr>,
#> #   subclass <chr>, taxonDistribution <chr>, ccAttributionIRI <chr>
```
