Create a table with the best-possible scientific name match for Australian plant names — create_taxonomic_update_lookup • APCalign
…
create_taxonomic_update_lookup(
    taxa = taxon_list$original_name,
    identifier = taxon_list$notes,
    full = TRUE,
    resources = resources
  )
#> Checking alignments of 32 taxa
#>   -> of these 10 names have a perfect match to a scientific name in the APC. 
#>       Alignments being sought for remaining names.
#> # A tibble: 32 × 21
#>    original_name          aligned_name accepted_name suggested_name genus family
#>    <chr>                  <chr>        <chr>         <chr>          <chr> <chr> 
#>  1 Banksia serrata        Banksia ser… Banksia serr… Banksia serra… Bank… Prote…
#>  2 Banksia serrate        Banksia ser… Banksia serr… Banksia serra… Bank… Prote…
#>  3 Banksee serrate        Banksia ser… Banksia serr… Banksia serra… Bank… Prote…
#>  4 Banksia cerrata        Banksia sp.… NA            Banksia sp. [… Bank… Prote…
#>  5 Banksia sp.            Banksia sp.… NA            Banksia sp. [… Bank… Prote…
#>  6 Dryandra sp.           Dryandra sp… NA            Banksia sp. [… Bank… Prote…
#>  7 Argyrodendron (Whyanb… Argyrodendr… Argyrodendro… Argyrodendron… Argy… Malva…
#>  8 Argyrodendron ssp. (W… Argyrodendr… Argyrodendro… Argyrodendron… Argy… Malva…
#>  9 Argyrodendron Whyanbe… Argyrodendr… Argyrodendro… Argyrodendron… Argy… Malva…
#> 10 Argyrodendron sp. (Wh… Argyrodendr… Argyrodendro… Argyrodendron… Argy… Malva…
#> # ℹ 22 more rows
#> # ℹ 15 more variables: taxon_rank <chr>, taxonomic_dataset <chr>,
#> #   taxonomic_status <chr>, taxonomic_status_aligned <chr>,
#> #   aligned_reason <chr>, update_reason <chr>, subclass <chr>,
#> #   taxon_distribution <chr>, scientific_name <chr>, taxon_ID <chr>,
#> #   taxon_ID_genus <chr>, scientific_name_ID <chr>, canonical_name <chr>,
#> #   row_number <dbl>, number_of_collapsed_taxa <dbl>
…
