Use the taxon distribution data from the APC to determine state level native and introduced origin status — create_species_state_origin_matrix • APCalign
…
    See also

    load_taxonomic_resources

Other diversity methods: 
native_anywhere_in_australia(),
state_diversity_counts()

    Examples

create_species_state_origin_matrix()
#> Loading resources...
#> ...done
#> # A tibble: 26,229 × 19
#>    species     NT    Qld   WA    ChI   NSW   SA    Vic   Tas   ACT   NI    LHI  
#>    <chr>       <chr> <chr> <chr> <chr> <chr> <chr> <chr> <chr> <chr> <chr> <chr>
#>  1 Cycas angu… nati… nati… not … not … not … not … not … not … not … not … not …
#>  2 Cycas aren… nati… not … not … not … not … not … not … not … not … not … not …
#>  3 Cycas arms… nati… not … not … not … not … not … not … not … not … not … not …
#>  4 Cycas arnh… nati… not … not … not … not … not … not … not … not … not … not …
#>  5 Cycas bade… not … nati… not … not … not … not … not … not … not … not … not …
#>  6 Cycas basa… not … not … nati… not … not … not … not … not … not … not … not …
#>  7 Cycas brun… nati… nati… not … not … not … not … not … not … not … not … not …
#>  8 Cycas cair… not … nati… not … not … not … not … not … not … not … not … not …
#>  9 Cycas calc… nati… not … not … not … not … not … not … not … not … not … not …
#> 10 Cycas cana… nati… not … not … not … not … not … not … not … not … not … not …
#> # ℹ 26,219 more rows
#> # ℹ 7 more variables: MI <chr>, HI <chr>, MDI <chr>, CoI <chr>, CSI <chr>,
#> #   AR <chr>, CaI <chr>
…
