Load taxonomic resources — load_taxonomic_resources • ausflora
…
    ver
The version number of the dataset to use. Defaults to the default version.

reload
A logical indicating whether to reload the dataset from the data source. Defaults to FALSE.

    Value

The taxonomic resources data loaded into the global environment.

    Examples

load_taxonomic_resources()
#> $APC
#> # A tibble: 109,622 × 37
#>    taxonID       nameT…¹ accep…² accep…³ nomen…⁴ nomIl…⁵ nomIn…⁶ taxon…⁷ proPa…⁸
#>    <chr>         <chr>   <chr>   <chr>   <chr>   <chr>   <chr>   <chr>   <lgl>  
#>  1 https://id.b… scient… https:… Planta… NA      f       f       accept… FALSE  
#>  2 https://id.b… scient… https:… Charop… NA      f       f       accept… FALSE  
#>  3 https://id.b… scient… https:… Charop… orth. … f       f       orthog… FALSE  
#>  4 https://id.b… scient… https:… Equise… orth. … f       f       orthog… FALSE  
#>  5 https://id.b… scient… https:… Equise… NA      f       f       taxono… FALSE  
#>  6 https://id.b… scient… https:… Equise… NA      f       f       accept… FALSE  
#>  7 https://id.b… scient… https:… Cycadi… NA      f       f       accept… FALSE  
#>  8 https://id.b… scient… https:… Cycada… NA      f       f       accept… FALSE  
#>  9 https://id.b… scient… https:… Cycada… NA      f       f       taxono… FALSE  
#> 10 https://id.b… scient… https:… Cycada… NA      f       f       taxono… FALSE  
#> # … with 109,612 more rows, 28 more variables: scientificName <chr>,
#> #   scientificNameID <chr>, canonicalName <chr>,
#> #   scientificNameAuthorship <chr>, parentNameUsageID <chr>, taxonRank <chr>,
#> #   taxonRankSortOrder <dbl>, kingdom <chr>, class <chr>, subclass <chr>,
#> #   family <chr>, taxonConceptID <chr>, nameAccordingTo <chr>,
#> #   nameAccordingToID <chr>, taxonRemarks <chr>, taxonDistribution <chr>,
#> #   higherClassification <chr>, firstHybridParentName <chr>, …
#> 
#> $APNI
#> # A tibble: 132,331 × 47
#>    scientificN…¹ nameT…² scien…³ scien…⁴ canon…⁵ canon…⁶ nameE…⁷ nomen…⁸ scien…⁹
#>    <chr>         <chr>   <chr>   <chr>   <chr>   <chr>   <chr>   <chr>   <chr>  
#>  1 https://id.b… scient… Acanth… <scien… Acanth… <scien… ebarba… NA      R.M.Ba…
#>  2 https://id.b… autonym Acanth… <scien… Acanth… <scien… ebract… NA      NA     
#>  3 https://id.b… scient… Acanth… <scien… Acanth… <scien… ebract… NA      Vahl   
#>  4 https://id.b… autonym Acanth… <scien… Acanth… <scien… ilicif… NA      NA     
#>  5 https://id.b… scient… Acanth… <scien… Acanth… <scien… subint… NA      Nees   
#>  6 https://id.b… scient… Acanth… <scien… Acanth… <scien… typica  nom. i… Domin  
#>  7 https://id.b… scient… Acanth… <scien… Acanth… <scien… ilicif… NA      L.     
#>  8 https://id.b… scient… Acanth… <scien… Acanth… <scien… mollis  NA      L.     
#>  9 https://id.b… scient… Acanth… <scien… Acanth… <scien… volubi… NA      Wall.  
#> 10 https://id.b… scient… Acanth… <scien… Acanth… <scien… Acanth… NA      L.     
#> # … with 132,321 more rows, 38 more variables: autonym <lgl>, hybrid <lgl>,
#> #   cultivar <lgl>, formula <lgl>, scientific <lgl>, nomInval <lgl>,
#> #   nomIlleg <lgl>, namePublishedIn <chr>, namePublishedInID <chr>,
#> #   namePublishedInYear <dbl>, nameInstanceType <chr>, nameAccordingToID <chr>,
#> #   nameAccordingTo <chr>, originalNameUsage <chr>, originalNameUsageID <chr>,
#> #   originalNameUsageYear <chr>, typeCitation <chr>, kingdom <chr>,
#> #   family <chr>, genericName <chr>, specificEpithet <chr>, …
#> 
#> $genera_accepted
#> # A tibble: 3,094 × 37
#>    taxonID       nameT…¹ accep…² accep…³ nomen…⁴ nomIl…⁵ nomIn…⁶ taxon…⁷ proPa…⁸
#>    <chr>         <chr>   <chr>   <chr>   <chr>   <chr>   <chr>   <chr>   <lgl>  
#>  1 https://id.b… scient… https:… Cycas … NA      f       f       accept… FALSE  
#>  2 https://id.b… scient… https:… Boweni… NA      f       f       accept… FALSE  
#>  3 https://id.b… scient… https:… Lepido… NA      f       f       accept… FALSE  
#>  4 https://id.b… scient… https:… Macroz… NA      f       f       accept… FALSE  
#>  5 https://id.b… scient… https:… Equise… NA      f       f       accept… FALSE  
#>  6 https://id.b… scient… https:… Isoete… NA      f       f       accept… FALSE  
#>  7 https://id.b… scient… https:… Huperz… NA      f       f       accept… FALSE  
#>  8 https://id.b… scient… https:… Lycopo… NA      f       f       accept… FALSE  
#>  9 https://id.b… scient… https:… Lycopo… NA      f       f       accept… FALSE  
#> 10 https://id.b… scient… https:… Phlegm… NA      f       f       accept… FALSE  
#> # … with 3,084 more rows, 28 more variables: scientificName <chr>,
#> #   scientificNameID <chr>, canonicalName <chr>,
#> #   scientificNameAuthorship <chr>, parentNameUsageID <chr>, taxonRank <chr>,
#> #   taxonRankSortOrder <dbl>, kingdom <chr>, class <chr>, subclass <chr>,
#> #   family <chr>, taxonConceptID <chr>, nameAccordingTo <chr>,
#> #   nameAccordingToID <chr>, taxonRemarks <chr>, taxonDistribution <chr>,
#> #   higherClassification <chr>, firstHybridParentName <chr>, …
#> 
#> $`APC list (accepted)`
#> # A tibble: 30,538 × 6
#>    canonicalName     scientificName              taxonom…¹ ID    strip…² strip…³
#>    <chr>             <chr>                       <chr>     <chr> <chr>   <chr>  
#>  1 Cycas angulata    Cycas angulata R.Br.        accepted  http… cycas … cycas …
#>  2 Cycas arenicola   Cycas arenicola K.D.Hill    accepted  http… cycas … cycas …
#>  3 Cycas armstrongii Cycas armstrongii Miq.      accepted  http… cycas … cycas …
#>  4 Cycas arnhemica   Cycas arnhemica K.D.Hill    accepted  http… cycas … cycas …
#>  5 Cycas badensis    Cycas badensis K.D.Hill     accepted  http… cycas … cycas …
#>  6 Cycas basaltica   Cycas basaltica C.A.Gardner accepted  http… cycas … cycas …
#>  7 Cycas brunnea     Cycas brunnea K.D.Hill      accepted  http… cycas … cycas …
#>  8 Cycas cairnsiana  Cycas cairnsiana F.Muell.   accepted  http… cycas … cycas …
#>  9 Cycas calcicola   Cycas calcicola Maconochie  accepted  http… cycas … cycas …
#> 10 Cycas canalis     Cycas canalis K.D.Hill      accepted  http… cycas … cycas …
#> # … with 30,528 more rows, and abbreviated variable names ¹​taxonomicStatus,
#> #   ²​stripped_canonical, ³​stripped_scientific
#> 
#> $`APC list (known names)`
#> # A tibble: 69,891 × 6
#>    canonicalName               scientificName      taxon…¹ ID    strip…² strip…³
#>    <chr>                       <chr>               <chr>   <chr> <chr>   <chr>  
#>  1 Cycas ser. Endemicosae      Cycas ser. Endemic… taxono… http… cycas … cycas …
#>  2 Cycas ser. Cairnsianosae    Cycas ser. Cairnsi… taxono… http… cycas … cycas …
#>  3 Cycas ser. Yorkianosae      Cycas ser. Yorkian… taxono… http… cycas … cycas …
#>  4 Cycas ser. Furfuraceosae    Cycas ser. Furfura… taxono… http… cycas … cycas …
#>  5 Cycas ser. Calcicolosae     Cycas ser. Calcico… taxono… http… cycas … cycas …
#>  6 Cycas ser. Armstrongianosae Cycas ser. Armstro… taxono… http… cycas … cycas …
#>  7 Cycas ser. Angulatosae      Cycas ser. Angulat… taxono… http… cycas … cycas …
#>  8 Cycas brunnea               Cycas brunnea K.D.… pro pa… http… cycas … cycas …
#>  9 Cycas media f. inermis      Cycas media f. ine… nomenc… http… cycas … cycas …
#> 10 Cycas media var. inermis    Cycas media var. i… nomenc… http… cycas … cycas …
#> # … with 69,881 more rows, and abbreviated variable names ¹​taxonomicStatus,
#> #   ²​stripped_canonical, ³​stripped_scientific
#> 
#> $`APNI names`
#> # A tibble: 131,793 × 6
#>    canonicalName                           scien…¹ ID    taxon…² strip…³ strip…⁴
#>    <chr>                                   <chr>   <chr> <chr>   <chr>   <chr>  
#>  1 (Dendrobium pugioniforme x Dendrobium … (Dendr… http… unplac… dendro… dendro…
#>  2 (Dockrillia pugioniformis x Dockrillia… (Dockr… http… unplac… dockri… dockri…
#>  3 (Eucalyptus globulus x Eucalyptus urni… (Eucal… http… unplac… eucaly… eucaly…
#>  4 (Eucalyptus globulus x Eucalyptus urni… (Eucal… http… unplac… eucaly… eucaly…
#>  5 (Eucalyptus johnstonii x Eucalyptus gl… (Eucal… http… unplac… eucaly… eucaly…
#>  6 (Eucalyptus johnstonii x Eucalyptus gl… (Eucal… http… unplac… eucaly… eucaly…
#>  7 (Eucalyptus urnigera x Eucalyptus glob… (Eucal… http… unplac… eucaly… eucaly…
#>  8 (Eucalyptus urnigera x Eucalyptus glob… (Eucal… http… unplac… eucaly… eucaly…
#>  9 Abacopteris                             Abacop… http… unplac… abacop… abacop…
#> 10 Abacopteris                             Abacop… http… unplac… abacop… abacop…
#> # … with 131,783 more rows, and abbreviated variable names ¹​scientificName,
#> #   ²​taxonomicStatus, ³​stripped_canonical, ⁴​stripped_scientific
#> 

load_taxonomic_resources("v2.0")
#> $APC
#> # A tibble: 109,622 × 37
#>    taxonID       nameT…¹ accep…² accep…³ nomen…⁴ nomIl…⁵ nomIn…⁶ taxon…⁷ proPa…⁸
#>    <chr>         <chr>   <chr>   <chr>   <chr>   <chr>   <chr>   <chr>   <lgl>  
#>  1 https://id.b… scient… https:… Planta… NA      f       f       accept… FALSE  
#>  2 https://id.b… scient… https:… Charop… NA      f       f       accept… FALSE  
#>  3 https://id.b… scient… https:… Charop… orth. … f       f       orthog… FALSE  
#>  4 https://id.b… scient… https:… Equise… orth. … f       f       orthog… FALSE  
#>  5 https://id.b… scient… https:… Equise… NA      f       f       taxono… FALSE  
#>  6 https://id.b… scient… https:… Equise… NA      f       f       accept… FALSE  
#>  7 https://id.b… scient… https:… Cycadi… NA      f       f       accept… FALSE  
#>  8 https://id.b… scient… https:… Cycada… NA      f       f       accept… FALSE  
#>  9 https://id.b… scient… https:… Cycada… NA      f       f       taxono… FALSE  
#> 10 https://id.b… scient… https:… Cycada… NA      f       f       taxono… FALSE  
#> # … with 109,612 more rows, 28 more variables: scientificName <chr>,
#> #   scientificNameID <chr>, canonicalName <chr>,
#> #   scientificNameAuthorship <chr>, parentNameUsageID <chr>, taxonRank <chr>,
#> #   taxonRankSortOrder <dbl>, kingdom <chr>, class <chr>, subclass <chr>,
#> #   family <chr>, taxonConceptID <chr>, nameAccordingTo <chr>,
#> #   nameAccordingToID <chr>, taxonRemarks <chr>, taxonDistribution <chr>,
#> #   higherClassification <chr>, firstHybridParentName <chr>, …
#> 
#> $APNI
#> # A tibble: 132,331 × 47
#>    scientificN…¹ nameT…² scien…³ scien…⁴ canon…⁵ canon…⁶ nameE…⁷ nomen…⁸ scien…⁹
#>    <chr>         <chr>   <chr>   <chr>   <chr>   <chr>   <chr>   <chr>   <chr>  
#>  1 https://id.b… scient… Acanth… <scien… Acanth… <scien… ebarba… NA      R.M.Ba…
#>  2 https://id.b… autonym Acanth… <scien… Acanth… <scien… ebract… NA      NA     
#>  3 https://id.b… scient… Acanth… <scien… Acanth… <scien… ebract… NA      Vahl   
#>  4 https://id.b… autonym Acanth… <scien… Acanth… <scien… ilicif… NA      NA     
#>  5 https://id.b… scient… Acanth… <scien… Acanth… <scien… subint… NA      Nees   
#>  6 https://id.b… scient… Acanth… <scien… Acanth… <scien… typica  nom. i… Domin  
#>  7 https://id.b… scient… Acanth… <scien… Acanth… <scien… ilicif… NA      L.     
#>  8 https://id.b… scient… Acanth… <scien… Acanth… <scien… mollis  NA      L.     
#>  9 https://id.b… scient… Acanth… <scien… Acanth… <scien… volubi… NA      Wall.  
#> 10 https://id.b… scient… Acanth… <scien… Acanth… <scien… Acanth… NA      L.     
#> # … with 132,321 more rows, 38 more variables: autonym <lgl>, hybrid <lgl>,
#> #   cultivar <lgl>, formula <lgl>, scientific <lgl>, nomInval <lgl>,
#> #   nomIlleg <lgl>, namePublishedIn <chr>, namePublishedInID <chr>,
#> #   namePublishedInYear <dbl>, nameInstanceType <chr>, nameAccordingToID <chr>,
#> #   nameAccordingTo <chr>, originalNameUsage <chr>, originalNameUsageID <chr>,
#> #   originalNameUsageYear <chr>, typeCitation <chr>, kingdom <chr>,
#> #   family <chr>, genericName <chr>, specificEpithet <chr>, …
#> 
#> $genera_accepted
#> # A tibble: 3,094 × 37
#>    taxonID       nameT…¹ accep…² accep…³ nomen…⁴ nomIl…⁵ nomIn…⁶ taxon…⁷ proPa…⁸
#>    <chr>         <chr>   <chr>   <chr>   <chr>   <chr>   <chr>   <chr>   <lgl>  
#>  1 https://id.b… scient… https:… Cycas … NA      f       f       accept… FALSE  
#>  2 https://id.b… scient… https:… Boweni… NA      f       f       accept… FALSE  
#>  3 https://id.b… scient… https:… Lepido… NA      f       f       accept… FALSE  
#>  4 https://id.b… scient… https:… Macroz… NA      f       f       accept… FALSE  
#>  5 https://id.b… scient… https:… Equise… NA      f       f       accept… FALSE  
#>  6 https://id.b… scient… https:… Isoete… NA      f       f       accept… FALSE  
#>  7 https://id.b… scient… https:… Huperz… NA      f       f       accept… FALSE  
#>  8 https://id.b… scient… https:… Lycopo… NA      f       f       accept… FALSE  
#>  9 https://id.b… scient… https:… Lycopo… NA      f       f       accept… FALSE  
#> 10 https://id.b… scient… https:… Phlegm… NA      f       f       accept… FALSE  
#> # … with 3,084 more rows, 28 more variables: scientificName <chr>,
#> #   scientificNameID <chr>, canonicalName <chr>,
#> #   scientificNameAuthorship <chr>, parentNameUsageID <chr>, taxonRank <chr>,
#> #   taxonRankSortOrder <dbl>, kingdom <chr>, class <chr>, subclass <chr>,
#> #   family <chr>, taxonConceptID <chr>, nameAccordingTo <chr>,
#> #   nameAccordingToID <chr>, taxonRemarks <chr>, taxonDistribution <chr>,
#> #   higherClassification <chr>, firstHybridParentName <chr>, …
#> 
#> $`APC list (accepted)`
#> # A tibble: 30,538 × 6
#>    canonicalName     scientificName              taxonom…¹ ID    strip…² strip…³
#>    <chr>             <chr>                       <chr>     <chr> <chr>   <chr>  
#>  1 Cycas angulata    Cycas angulata R.Br.        accepted  http… cycas … cycas …
#>  2 Cycas arenicola   Cycas arenicola K.D.Hill    accepted  http… cycas … cycas …
#>  3 Cycas armstrongii Cycas armstrongii Miq.      accepted  http… cycas … cycas …
#>  4 Cycas arnhemica   Cycas arnhemica K.D.Hill    accepted  http… cycas … cycas …
#>  5 Cycas badensis    Cycas badensis K.D.Hill     accepted  http… cycas … cycas …
#>  6 Cycas basaltica   Cycas basaltica C.A.Gardner accepted  http… cycas … cycas …
#>  7 Cycas brunnea     Cycas brunnea K.D.Hill      accepted  http… cycas … cycas …
#>  8 Cycas cairnsiana  Cycas cairnsiana F.Muell.   accepted  http… cycas … cycas …
#>  9 Cycas calcicola   Cycas calcicola Maconochie  accepted  http… cycas … cycas …
#> 10 Cycas canalis     Cycas canalis K.D.Hill      accepted  http… cycas … cycas …
#> # … with 30,528 more rows, and abbreviated variable names ¹​taxonomicStatus,
#> #   ²​stripped_canonical, ³​stripped_scientific
#> 
#> $`APC list (known names)`
#> # A tibble: 69,891 × 6
#>    canonicalName               scientificName      taxon…¹ ID    strip…² strip…³
#>    <chr>                       <chr>               <chr>   <chr> <chr>   <chr>  
#>  1 Cycas ser. Endemicosae      Cycas ser. Endemic… taxono… http… cycas … cycas …
#>  2 Cycas ser. Cairnsianosae    Cycas ser. Cairnsi… taxono… http… cycas … cycas …
#>  3 Cycas ser. Yorkianosae      Cycas ser. Yorkian… taxono… http… cycas … cycas …
#>  4 Cycas ser. Furfuraceosae    Cycas ser. Furfura… taxono… http… cycas … cycas …
#>  5 Cycas ser. Calcicolosae     Cycas ser. Calcico… taxono… http… cycas … cycas …
#>  6 Cycas ser. Armstrongianosae Cycas ser. Armstro… taxono… http… cycas … cycas …
#>  7 Cycas ser. Angulatosae      Cycas ser. Angulat… taxono… http… cycas … cycas …
#>  8 Cycas brunnea               Cycas brunnea K.D.… pro pa… http… cycas … cycas …
#>  9 Cycas media f. inermis      Cycas media f. ine… nomenc… http… cycas … cycas …
#> 10 Cycas media var. inermis    Cycas media var. i… nomenc… http… cycas … cycas …
#> # … with 69,881 more rows, and abbreviated variable names ¹​taxonomicStatus,
#> #   ²​stripped_canonical, ³​stripped_scientific
#> 
#> $`APNI names`
#> # A tibble: 131,793 × 6
#>    canonicalName                           scien…¹ ID    taxon…² strip…³ strip…⁴
#>    <chr>                                   <chr>   <chr> <chr>   <chr>   <chr>  
#>  1 (Dendrobium pugioniforme x Dendrobium … (Dendr… http… unplac… dendro… dendro…
#>  2 (Dockrillia pugioniformis x Dockrillia… (Dockr… http… unplac… dockri… dockri…
#>  3 (Eucalyptus globulus x Eucalyptus urni… (Eucal… http… unplac… eucaly… eucaly…
#>  4 (Eucalyptus globulus x Eucalyptus urni… (Eucal… http… unplac… eucaly… eucaly…
#>  5 (Eucalyptus johnstonii x Eucalyptus gl… (Eucal… http… unplac… eucaly… eucaly…
#>  6 (Eucalyptus johnstonii x Eucalyptus gl… (Eucal… http… unplac… eucaly… eucaly…
#>  7 (Eucalyptus urnigera x Eucalyptus glob… (Eucal… http… unplac… eucaly… eucaly…
#>  8 (Eucalyptus urnigera x Eucalyptus glob… (Eucal… http… unplac… eucaly… eucaly…
#>  9 Abacopteris                             Abacop… http… unplac… abacop… abacop…
#> 10 Abacopteris                             Abacop… http… unplac… abacop… abacop…
#> # … with 131,783 more rows, and abbreviated variable names ¹​scientificName,
#> #   ²​taxonomicStatus, ³​stripped_canonical, ⁴​stripped_scientific
#> 

load_taxonomic_resources(reload = TRUE)
#> $APC
#> # A tibble: 109,622 × 37
#>    taxonID       nameT…¹ accep…² accep…³ nomen…⁴ nomIl…⁵ nomIn…⁶ taxon…⁷ proPa…⁸
#>    <chr>         <chr>   <chr>   <chr>   <chr>   <chr>   <chr>   <chr>   <lgl>  
#>  1 https://id.b… scient… https:… Planta… NA      f       f       accept… FALSE  
#>  2 https://id.b… scient… https:… Charop… NA      f       f       accept… FALSE  
#>  3 https://id.b… scient… https:… Charop… orth. … f       f       orthog… FALSE  
#>  4 https://id.b… scient… https:… Equise… orth. … f       f       orthog… FALSE  
#>  5 https://id.b… scient… https:… Equise… NA      f       f       taxono… FALSE  
#>  6 https://id.b… scient… https:… Equise… NA      f       f       accept… FALSE  
#>  7 https://id.b… scient… https:… Cycadi… NA      f       f       accept… FALSE  
#>  8 https://id.b… scient… https:… Cycada… NA      f       f       accept… FALSE  
#>  9 https://id.b… scient… https:… Cycada… NA      f       f       taxono… FALSE  
#> 10 https://id.b… scient… https:… Cycada… NA      f       f       taxono… FALSE  
#> # … with 109,612 more rows, 28 more variables: scientificName <chr>,
#> #   scientificNameID <chr>, canonicalName <chr>,
#> #   scientificNameAuthorship <chr>, parentNameUsageID <chr>, taxonRank <chr>,
#> #   taxonRankSortOrder <dbl>, kingdom <chr>, class <chr>, subclass <chr>,
#> #   family <chr>, taxonConceptID <chr>, nameAccordingTo <chr>,
#> #   nameAccordingToID <chr>, taxonRemarks <chr>, taxonDistribution <chr>,
#> #   higherClassification <chr>, firstHybridParentName <chr>, …
…
