APCalign • APCalign
…
# install.packages("remotes")
remotes::install_github("traitecoevo/APCalign")

library(APCalign)

To demonstrate how to use ‘APCalign’, we will use an example dataset
gbif_lite which is documented in
?gbif_lite

dim(gbif_lite)
#> [1] 129   7

gbif_lite |> print(n = 6)
#> # A tibble: 129 × 7
#>   species              infraspecificepithet taxonrank decimalLongitude decimalLatitude scientificname
#>   <chr>                <chr>                <chr>                <dbl>           <dbl> <chr>         
#> 1 Tetratheca ciliata   <NA>                 SPECIES               145.           -37.4 Tetratheca ci…
#> 2 Peganum harmala      <NA>                 SPECIES               139.           -33.3 Peganum harma…
#> 3 Calotis multicaulis  <NA>                 SPECIES               115.           -24.3 Calotis multi…
#> 4 Leptospermum triner… <NA>                 SPECIES               151.           -34.0 Leptospermum …
#> 5 Lepidosperma latera… <NA>                 SPECIES               142.           -37.3 Lepidosperma …
#> 6 Enneapogon polyphyl… <NA>                 SPECIES               129.           -17.8 Enneapogon po…
#> # ℹ 123 more rows
#> # ℹ 1 more variable: verbatimscientificname <chr>
…
