Introduction to ausflora • ausflora
…
# install.packages("remotes")
remotes::install_github("traitecoevo/ausflora")

Once its installed, we can load it into R using

library(ausflora)

To demonstrate how to use ausflora, we will use an example dataset
gbif_lite which is documented in ?gbif_lite

dim(gbif_lite)
#> [1] 129   7

gbif_lite
#> # A tibble: 129 × 7
#>    species       infraspecificepithet taxonrank decimalLongitude decimalLatitude
#>    <chr>         <chr>                <chr>                <dbl>           <dbl>
#>  1 Tetratheca c… NA                   SPECIES               145.           -37.4
#>  2 Peganum harm… NA                   SPECIES               139.           -33.3
#>  3 Calotis mult… NA                   SPECIES               115.           -24.3
#>  4 Leptospermum… NA                   SPECIES               151.           -34.0
#>  5 Lepidosperma… NA                   SPECIES               142.           -37.3
#>  6 Enneapogon p… NA                   SPECIES               129.           -17.8
#>  7 Acacia verti… NA                   SPECIES               144.           -38.6
#>  8 Banksia serr… NA                   SPECIES               149.           -37.8
#>  9 Glischrocary… NA                   SPECIES               136.           -34.3
#> 10 Senna artemi… artemisioides        SUBSPECI…             142.           -25.9
#> # ℹ 119 more rows
#> # ℹ 2 more variables: scientificname <chr>, verbatimscientificname <chr>
…
update_gbif_names <- gbif_lite |> 
  drop_na(species) |> # This step is temporary bug
  pull(species) |> 
  create_taxonomic_update_lookup(resources = resources)
#> Checking alignments of 121 taxa
#>   -> 0 names already matched; 0 names checked but without a match; 121 taxa yet to be checked

update_gbif_names
#> # A tibble: 144 × 5
#>    original_name     aligned_name apc_name aligned_reason taxonomic_status_of_…¹
#>    <chr>             <chr>        <chr>    <chr>          <chr>                 
#>  1 Tetratheca cilia… Tetratheca … Tetrath… match_06. Aut… accepted              
#>  2 Peganum harmala   Peganum har… Peganum… match_06. Aut… accepted              
#>  3 Calotis multicau… Calotis mul… Calotis… match_06. Aut… accepted              
#>  4 Calotis multicau… Calotis mul… Calotis… match_06. Aut… pro parte misapplied  
#>  5 Leptospermum tri… Leptospermu… Leptosp… match_06. Aut… accepted              
#>  6 Lepidosperma lat… Lepidosperm… Lepidos… match_06. Aut… accepted              
#>  7 Enneapogon polyp… Enneapogon … Enneapo… match_06. Aut… accepted              
#>  8 Acacia verticill… Acacia vert… Acacia … match_06. Aut… accepted              
#>  9 Banksia serrata   Banksia ser… Banksia… match_06. Aut… accepted              
#> 10 Glischrocaryon b… Glischrocar… Glischr… match_06. Aut… accepted              
#> # ℹ 134 more rows
#> # ℹ abbreviated name: ¹​taxonomic_status_of_aligned_name
…
We recommend joining the output of
create_taxonomic_update_lookup() back to your original data
so all names

gbif_lite |> 
left_join(update_gbif_names,  # Left joining updated taxon names back to original data 
          by = join_by(species == original_name)) |> 
  select(species, ends_with("name"), # Rearranging naming columns
         aligned_reason, infraspecificepithet:decimalLatitude)
#> Warning in left_join(gbif_lite, update_gbif_names, by = join_by(species == : Detected an unexpected many-to-many relationship between `x` and `y`.
#> ℹ Row 3 of `x` matches multiple rows in `y`.
#> ℹ Row 12 of `y` matches multiple rows in `x`.
#> ℹ If a many-to-many relationship is expected, set `relationship =
#>   "many-to-many"` to silence this warning.
#> # A tibble: 154 × 11
#>    species           scientificname verbatimscientificname aligned_name apc_name
#>    <chr>             <chr>          <chr>                  <chr>        <chr>   
#>  1 Tetratheca cilia… Tetratheca ci… Tetratheca ciliata     Tetratheca … Tetrath…
#>  2 Peganum harmala   Peganum harma… Peganum harmala        Peganum har… Peganum…
#>  3 Calotis multicau… Calotis multi… Calotis multicaulis    Calotis mul… Calotis…
#>  4 Calotis multicau… Calotis multi… Calotis multicaulis    Calotis mul… Calotis…
#>  5 Leptospermum tri… Leptospermum … Leptospermum trinervi… Leptospermu… Leptosp…
#>  6 Lepidosperma lat… Lepidosperma … Lepidosperma laterale  Lepidosperm… Lepidos…
#>  7 Enneapogon polyp… Enneapogon po… Enneapogon polyphyllus Enneapogon … Enneapo…
#>  8 Acacia verticill… Acacia vertic… Acacia verticillata    Acacia vert… Acacia …
#>  9 Banksia serrata   Banksia serra… Banksia serrata        Banksia ser… Banksia…
#> 10 Glischrocaryon b… Glischrocaryo… Glischrocaryon behrii  Glischrocar… Glischr…
#> # ℹ 144 more rows
#> # ℹ 6 more variables: taxonomic_status_of_aligned_name <chr>,
#> #   aligned_reason <chr>, infraspecificepithet <chr>, taxonrank <chr>,
#> #   decimalLongitude <dbl>, decimalLatitude <dbl>

Plant established status across states/territories

‘ausflora’ can also provide the state/territory distribution for
established status (native/introduced) from the APC.

We can access the established status data by state/territory using
create_species_state_origin_matrix()

# Retrieve status data by state/territory 
status_matrix <- create_species_state_origin_matrix(resources = resources)

status_matrix
#> # A tibble: 26,243 × 19
#>    species     NT    Qld   WA    ChI   NSW   SA    Vic   Tas   ACT   NI    LHI  
#>    <chr>       <chr> <chr> <chr> <chr> <chr> <chr> <chr> <chr> <chr> <chr> <chr>
#>  1 Cycas angu… nati… nati… not … not … not … not … not … not … not … not … not …
#>  2 Cycas aren… nati… not … not … not … not … not … not … not … not … not … not …
#>  3 Cycas arms… nati… not … not … not … not … not … not … not … not … not … not …
#>  4 Cycas arnh… nati… not … not … not … not … not … not … not … not … not … not …
#>  5 Cycas bade… not … nati… not … not … not … not … not … not … not … not … not …
#>  6 Cycas basa… not … not … nati… not … not … not … not … not … not … not … not …
#>  7 Cycas brun… nati… nati… not … not … not … not … not … not … not … not … not …
#>  8 Cycas cair… not … nati… not … not … not … not … not … not … not … not … not …
#>  9 Cycas calc… nati… not … not … not … not … not … not … not … not … not … not …
#> 10 Cycas cana… nati… not … not … not … not … not … not … not … not … not … not …
#> # ℹ 26,233 more rows
#> # ℹ 7 more variables: MI <chr>, HI <chr>, MDI <chr>, CoI <chr>, CSI <chr>,
#> #   AR <chr>, CaI <chr>
…
You can control the degree of fuzzy matching using the arguments
max_distance_abs and max_distance_rel

library(dplyr)
library(tidyr)

aligned_gbif_taxa <- gbif_lite |> 
  drop_na(species) |>  
  pull(species) |> 
  align_taxa(resources = resources)
#> Checking alignments of 121 taxa
#>   -> 0 names already matched; 0 names checked but without a match; 121 taxa yet to be checked

aligned_gbif_taxa
#> # A tibble: 121 × 28
#>    original_name    cleaned_name aligned_name source known checked stripped_name
#>    <chr>            <chr>        <chr>        <chr>  <lgl> <lgl>   <chr>        
#>  1 Tetratheca cili… Tetratheca … Tetratheca … NA     TRUE  TRUE    tetratheca c…
#>  2 Peganum harmala  Peganum har… Peganum har… NA     TRUE  TRUE    peganum harm…
#>  3 Calotis multica… Calotis mul… Calotis mul… NA     TRUE  TRUE    calotis mult…
#>  4 Leptospermum tr… Leptospermu… Leptospermu… NA     TRUE  TRUE    leptospermum…
#>  5 Lepidosperma la… Lepidosperm… Lepidosperm… NA     TRUE  TRUE    lepidosperma…
#>  6 Enneapogon poly… Enneapogon … Enneapogon … NA     TRUE  TRUE    enneapogon p…
#>  7 Acacia verticil… Acacia vert… Acacia vert… NA     TRUE  TRUE    acacia verti…
#>  8 Banksia serrata  Banksia ser… Banksia ser… NA     TRUE  TRUE    banksia serr…
#>  9 Glischrocaryon … Glischrocar… Glischrocar… NA     TRUE  TRUE    glischrocary…
#> 10 Senna artemisio… Senna artem… Senna artem… NA     TRUE  TRUE    senna artemi…
#> # ℹ 111 more rows
#> # ℹ 21 more variables: stripped_name2 <chr>, trinomial <chr>, binomial <chr>,
#> #   genus <chr>, aligned_reason <chr>, fuzzy_match_genus <chr>,
#> #   fuzzy_match_genus_known <chr>, fuzzy_match_genus_APNI <chr>,
#> #   fuzzy_match_binomial <chr>, fuzzy_match_binomial_APC_known <chr>,
#> #   fuzzy_match_trinomial <chr>, fuzzy_match_trinomial_known <chr>,
#> #   fuzzy_match_cleaned_APC <chr>, fuzzy_match_cleaned_APC_known <chr>, …
…
